Text as Data - Representation
…
d <- convert(dfm1, to = "data.frame")

d <- d |> 
  pivot_longer(!doc_id, names_to = "word", values_to = "n") |> 
  filter(n > 0)

d <- d |> 
  mutate(doc_id = readr::parse_number(doc_id))

d <- d |> rename(id = doc_id) |> mutate(id = as.integer(id))

d |> filter(id == 1) |> arrange(desc(n), word)

# A tibble: 342 × 3
      id word        n
   <int> <chr>   <dbl>
 1     1 state       6
 2     1 import      5
 3     1 may         5
 4     1 measur      5
 5     1 public      5
 6     1 respect     5
 7     1 unit        5
 8     1 countri     4
 9     1 end         4
10     1 govern      4
# ℹ 332 more rows

df_bow |> filter(id == 1) |> arrange(desc(n), word)

# A tibble: 342 × 3
      id word        n
   <int> <chr>   <int>
 1     1 state       6
 2     1 import      5
 3     1 mai         5
 4     1 measur      5
 5     1 public      5
 6     1 respect     5
 7     1 unit        5
 8     1 countri     4
 9     1 end         4
10     1 govern      4
# ℹ 332 more rows
…
